<?xml version="1.0" encoding="UTF-8"?>
<sitemapindex
    xmlns="http://www.sitemaps.org/schemas/sitemap/0.9"
    xmlns:xhtml="http://www.w3.org/1999/xhtml"
    xmlns:xsi="http://www.w3.org/2001/XMLSchema-instance"
    xsi:schemaLocation="http://www.sitemaps.org/schemas/sitemap/0.9
                        http://www.sitemaps.org/schemas/sitemap/0.9/sitemap.xsd">
 <sitemap>
  <loc>https://differentnetcritique.memoryoftheworld.org/galleries/rss.xml</loc>
  <lastmod>2017-06-21T02:51:00Z</lastmod>
 </sitemap>
 <sitemap>
  <loc>https://differentnetcritique.memoryoftheworld.org/rss.xml</loc>
  <lastmod>2017-04-24T01:41:00Z</lastmod>
 </sitemap>
 <sitemap>
  <loc>https://differentnetcritique.memoryoftheworld.org/sitemap.xml</loc>
  <lastmod>2017-06-21T02:51:00Z</lastmod>
 </sitemap>
</sitemapindex>